%FSLAX45Y45*%
G04 Gerber Fmt 4.5, Leading zero omitted, Abs format (unit mm)*
G04 Created by KiCad (PCBNEW 4.0.1-stable) date Monday, April 18, 2016 'AMt' 01:34:28 AM*
%MOMM*%
G01*
G04 APERTURE LIST*
%ADD10C,0.127000*%
%ADD11C,0.025400*%
%ADD12C,0.200000*%
%ADD13C,0.300000*%
G04 APERTURE END LIST*
D10*
D11*
X1865000Y1296895D02*
X1865000Y0D01*
X1865000Y0D02*
X0Y0D01*
X0Y0D02*
X0Y1296895D01*
X0Y1296895D02*
G75*
G02X1865000Y1296895I932500J0D01*
G01*
D12*
X387180Y459960D02*
X477180Y369960D01*
X477180Y459960D02*
X387180Y369960D01*
X387180Y259960D02*
X477180Y169960D01*
X477180Y259960D02*
X387180Y169960D01*
X587180Y459960D02*
X677180Y369960D01*
X677180Y459960D02*
X587180Y369960D01*
X587180Y259960D02*
X677180Y169960D01*
X677180Y259960D02*
X587180Y169960D01*
X787180Y459960D02*
X877180Y369960D01*
X877180Y459960D02*
X787180Y369960D01*
X787180Y259960D02*
X877180Y169960D01*
X877180Y259960D02*
X787180Y169960D01*
X987180Y459960D02*
X1077180Y369960D01*
X1077180Y459960D02*
X987180Y369960D01*
X987180Y259960D02*
X1077180Y169960D01*
X1077180Y259960D02*
X987180Y169960D01*
X1187180Y459960D02*
X1277180Y369960D01*
X1277180Y459960D02*
X1187180Y369960D01*
X1187180Y259960D02*
X1277180Y169960D01*
X1277180Y259960D02*
X1187180Y169960D01*
X1387180Y459960D02*
X1477180Y369960D01*
X1477180Y459960D02*
X1387180Y369960D01*
X1387180Y259960D02*
X1477180Y169960D01*
X1477180Y259960D02*
X1387180Y169960D01*
X523365Y1420879D02*
G75*
G03X523365Y1420879I-50000J0D01*
G01*
X523365Y1175001D02*
G75*
G03X523365Y1175001I-50000J0D01*
G01*
X646304Y1633816D02*
G75*
G03X646304Y1633816I-50000J0D01*
G01*
X646304Y962064D02*
G75*
G03X646304Y962064I-50000J0D01*
G01*
X837294Y1259120D02*
G75*
G03X837294Y1259120I-50000J0D01*
G01*
X859241Y839125D02*
G75*
G03X859241Y839125I-50000J0D01*
G01*
X859241Y1756755D02*
G75*
G03X859241Y1756755I-50000J0D01*
G01*
X1105119Y1756755D02*
G75*
G03X1105119Y1756755I-50000J0D01*
G01*
X1105119Y839125D02*
G75*
G03X1105119Y839125I-50000J0D01*
G01*
X1318056Y1633816D02*
G75*
G03X1318056Y1633816I-50000J0D01*
G01*
X1318056Y962064D02*
G75*
G03X1318056Y962064I-50000J0D01*
G01*
X1440995Y1420879D02*
G75*
G03X1440995Y1420879I-50000J0D01*
G01*
X1440995Y1175001D02*
G75*
G03X1440995Y1175001I-50000J0D01*
G01*
D13*
X270159Y-466984D02*
X270159Y-166984D01*
X341587Y-166984D01*
X384444Y-181270D01*
X413016Y-209841D01*
X427301Y-238413D01*
X441587Y-295556D01*
X441587Y-338413D01*
X427301Y-395556D01*
X413016Y-424127D01*
X384444Y-452699D01*
X341587Y-466984D01*
X270159Y-466984D01*
X570159Y-466984D02*
X570159Y-266984D01*
X570159Y-324127D02*
X584444Y-295556D01*
X598730Y-281270D01*
X627301Y-266984D01*
X655873Y-266984D01*
X755873Y-466984D02*
X755873Y-266984D01*
X755873Y-166984D02*
X741587Y-181270D01*
X755873Y-195556D01*
X770158Y-181270D01*
X755873Y-166984D01*
X755873Y-195556D01*
X941587Y-466984D02*
X913016Y-452699D01*
X898730Y-424127D01*
X898730Y-166984D01*
X1098730Y-466984D02*
X1070159Y-452699D01*
X1055873Y-424127D01*
X1055873Y-166984D01*
X1441587Y-466984D02*
X1441587Y-166984D01*
X1541587Y-381270D01*
X1641587Y-166984D01*
X1641587Y-466984D01*
X1913016Y-466984D02*
X1913016Y-309842D01*
X1898730Y-281270D01*
X1870158Y-266984D01*
X1813016Y-266984D01*
X1784444Y-281270D01*
X1913016Y-452699D02*
X1884444Y-466984D01*
X1813016Y-466984D01*
X1784444Y-452699D01*
X1770158Y-424127D01*
X1770158Y-395556D01*
X1784444Y-366984D01*
X1813016Y-352699D01*
X1884444Y-352699D01*
X1913016Y-338413D01*
X2055873Y-266984D02*
X2055873Y-566984D01*
X2055873Y-281270D02*
X2084444Y-266984D01*
X2141587Y-266984D01*
X2170159Y-281270D01*
X2184444Y-295556D01*
X2198730Y-324127D01*
X2198730Y-409841D01*
X2184444Y-438413D01*
X2170159Y-452699D01*
X2141587Y-466984D01*
X2084444Y-466984D01*
X2055873Y-452699D01*
X2327301Y-438413D02*
X2341587Y-452699D01*
X2327301Y-466984D01*
X2313016Y-452699D01*
X2327301Y-438413D01*
X2327301Y-466984D01*
X2327301Y-281270D02*
X2341587Y-295556D01*
X2327301Y-309842D01*
X2313016Y-295556D01*
X2327301Y-281270D01*
X2327301Y-309842D01*
X-91270Y-916270D02*
X-1270Y-1006270D01*
X-1270Y-916270D02*
X-91270Y-1006270D01*
X327301Y-796984D02*
X355873Y-796984D01*
X384444Y-811270D01*
X398730Y-825556D01*
X413016Y-854127D01*
X427301Y-911270D01*
X427301Y-982699D01*
X413016Y-1039841D01*
X398730Y-1068413D01*
X384444Y-1082699D01*
X355873Y-1096984D01*
X327301Y-1096984D01*
X298730Y-1082699D01*
X284444Y-1068413D01*
X270159Y-1039841D01*
X255873Y-982699D01*
X255873Y-911270D01*
X270159Y-854127D01*
X284444Y-825556D01*
X298730Y-811270D01*
X327301Y-796984D01*
X555873Y-1068413D02*
X570159Y-1082699D01*
X555873Y-1096984D01*
X541587Y-1082699D01*
X555873Y-1068413D01*
X555873Y-1096984D01*
X713016Y-1096984D02*
X770158Y-1096984D01*
X798730Y-1082699D01*
X813016Y-1068413D01*
X841587Y-1025556D01*
X855873Y-968413D01*
X855873Y-854127D01*
X841587Y-825556D01*
X827301Y-811270D01*
X798730Y-796984D01*
X741587Y-796984D01*
X713016Y-811270D01*
X698730Y-825556D01*
X684444Y-854127D01*
X684444Y-925556D01*
X698730Y-954127D01*
X713016Y-968413D01*
X741587Y-982699D01*
X798730Y-982699D01*
X827301Y-968413D01*
X841587Y-954127D01*
X855873Y-925556D01*
X1041587Y-796984D02*
X1070159Y-796984D01*
X1098730Y-811270D01*
X1113016Y-825556D01*
X1127301Y-854127D01*
X1141587Y-911270D01*
X1141587Y-982699D01*
X1127301Y-1039841D01*
X1113016Y-1068413D01*
X1098730Y-1082699D01*
X1070159Y-1096984D01*
X1041587Y-1096984D01*
X1013016Y-1082699D01*
X998730Y-1068413D01*
X984444Y-1039841D01*
X970158Y-982699D01*
X970158Y-911270D01*
X984444Y-854127D01*
X998730Y-825556D01*
X1013016Y-811270D01*
X1041587Y-796984D01*
X1270159Y-1096984D02*
X1270159Y-896984D01*
X1270159Y-925556D02*
X1284444Y-911270D01*
X1313016Y-896984D01*
X1355873Y-896984D01*
X1384444Y-911270D01*
X1398730Y-939841D01*
X1398730Y-1096984D01*
X1398730Y-939841D02*
X1413016Y-911270D01*
X1441587Y-896984D01*
X1484444Y-896984D01*
X1513016Y-911270D01*
X1527301Y-939841D01*
X1527301Y-1096984D01*
X1670158Y-1096984D02*
X1670158Y-896984D01*
X1670158Y-925556D02*
X1684444Y-911270D01*
X1713016Y-896984D01*
X1755873Y-896984D01*
X1784444Y-911270D01*
X1798730Y-939841D01*
X1798730Y-1096984D01*
X1798730Y-939841D02*
X1813016Y-911270D01*
X1841587Y-896984D01*
X1884444Y-896984D01*
X1913016Y-911270D01*
X1927301Y-939841D01*
X1927301Y-1096984D01*
X2513016Y-782699D02*
X2255873Y-1168413D01*
X2898730Y-796984D02*
X2927301Y-796984D01*
X2955873Y-811270D01*
X2970158Y-825556D01*
X2984444Y-854127D01*
X2998730Y-911270D01*
X2998730Y-982699D01*
X2984444Y-1039841D01*
X2970158Y-1068413D01*
X2955873Y-1082699D01*
X2927301Y-1096984D01*
X2898730Y-1096984D01*
X2870158Y-1082699D01*
X2855873Y-1068413D01*
X2841587Y-1039841D01*
X2827301Y-982699D01*
X2827301Y-911270D01*
X2841587Y-854127D01*
X2855873Y-825556D01*
X2870158Y-811270D01*
X2898730Y-796984D01*
X3127301Y-1068413D02*
X3141587Y-1082699D01*
X3127301Y-1096984D01*
X3113016Y-1082699D01*
X3127301Y-1068413D01*
X3127301Y-1096984D01*
X3327301Y-796984D02*
X3355873Y-796984D01*
X3384444Y-811270D01*
X3398730Y-825556D01*
X3413015Y-854127D01*
X3427301Y-911270D01*
X3427301Y-982699D01*
X3413015Y-1039841D01*
X3398730Y-1068413D01*
X3384444Y-1082699D01*
X3355873Y-1096984D01*
X3327301Y-1096984D01*
X3298730Y-1082699D01*
X3284444Y-1068413D01*
X3270158Y-1039841D01*
X3255873Y-982699D01*
X3255873Y-911270D01*
X3270158Y-854127D01*
X3284444Y-825556D01*
X3298730Y-811270D01*
X3327301Y-796984D01*
X3527301Y-796984D02*
X3713015Y-796984D01*
X3613015Y-911270D01*
X3655873Y-911270D01*
X3684444Y-925556D01*
X3698730Y-939841D01*
X3713015Y-968413D01*
X3713015Y-1039841D01*
X3698730Y-1068413D01*
X3684444Y-1082699D01*
X3655873Y-1096984D01*
X3570158Y-1096984D01*
X3541587Y-1082699D01*
X3527301Y-1068413D01*
X3984444Y-796984D02*
X3841587Y-796984D01*
X3827301Y-939841D01*
X3841587Y-925556D01*
X3870158Y-911270D01*
X3941587Y-911270D01*
X3970158Y-925556D01*
X3984444Y-939841D01*
X3998730Y-968413D01*
X3998730Y-1039841D01*
X3984444Y-1068413D01*
X3970158Y-1082699D01*
X3941587Y-1096984D01*
X3870158Y-1096984D01*
X3841587Y-1082699D01*
X3827301Y-1068413D01*
X4113016Y-796984D02*
X4113016Y-854127D01*
X4227301Y-796984D02*
X4227301Y-854127D01*
X4670158Y-1211270D02*
X4655873Y-1196984D01*
X4627301Y-1154127D01*
X4613016Y-1125556D01*
X4598730Y-1082699D01*
X4584444Y-1011270D01*
X4584444Y-954127D01*
X4598730Y-882699D01*
X4613016Y-839841D01*
X4627301Y-811270D01*
X4655873Y-768413D01*
X4670158Y-754127D01*
X4941587Y-1096984D02*
X4770158Y-1096984D01*
X4855873Y-1096984D02*
X4855873Y-796984D01*
X4827301Y-839841D01*
X4798730Y-868413D01*
X4770158Y-882699D01*
X5055873Y-825556D02*
X5070158Y-811270D01*
X5098730Y-796984D01*
X5170158Y-796984D01*
X5198730Y-811270D01*
X5213016Y-825556D01*
X5227301Y-854127D01*
X5227301Y-882699D01*
X5213016Y-925556D01*
X5041587Y-1096984D01*
X5227301Y-1096984D01*
X5584444Y-1096984D02*
X5584444Y-796984D01*
X5713015Y-1096984D02*
X5713015Y-939841D01*
X5698730Y-911270D01*
X5670158Y-896984D01*
X5627301Y-896984D01*
X5598730Y-911270D01*
X5584444Y-925556D01*
X5898730Y-1096984D02*
X5870158Y-1082699D01*
X5855873Y-1068413D01*
X5841587Y-1039841D01*
X5841587Y-954127D01*
X5855873Y-925556D01*
X5870158Y-911270D01*
X5898730Y-896984D01*
X5941587Y-896984D01*
X5970158Y-911270D01*
X5984444Y-925556D01*
X5998730Y-954127D01*
X5998730Y-1039841D01*
X5984444Y-1068413D01*
X5970158Y-1082699D01*
X5941587Y-1096984D01*
X5898730Y-1096984D01*
X6170158Y-1096984D02*
X6141587Y-1082699D01*
X6127301Y-1054127D01*
X6127301Y-796984D01*
X6398730Y-1082699D02*
X6370158Y-1096984D01*
X6313016Y-1096984D01*
X6284444Y-1082699D01*
X6270158Y-1054127D01*
X6270158Y-939841D01*
X6284444Y-911270D01*
X6313016Y-896984D01*
X6370158Y-896984D01*
X6398730Y-911270D01*
X6413016Y-939841D01*
X6413016Y-968413D01*
X6270158Y-996984D01*
X6527301Y-1082699D02*
X6555873Y-1096984D01*
X6613016Y-1096984D01*
X6641587Y-1082699D01*
X6655873Y-1054127D01*
X6655873Y-1039841D01*
X6641587Y-1011270D01*
X6613016Y-996984D01*
X6570158Y-996984D01*
X6541587Y-982699D01*
X6527301Y-954127D01*
X6527301Y-939841D01*
X6541587Y-911270D01*
X6570158Y-896984D01*
X6613016Y-896984D01*
X6641587Y-911270D01*
X6755873Y-1211270D02*
X6770158Y-1196984D01*
X6798730Y-1154127D01*
X6813016Y-1125556D01*
X6827301Y-1082699D01*
X6841587Y-1011270D01*
X6841587Y-954127D01*
X6827301Y-882699D01*
X6813016Y-839841D01*
X6798730Y-811270D01*
X6770158Y-768413D01*
X6755873Y-754127D01*
X-1270Y-1357270D02*
G75*
G03X-1270Y-1357270I-50000J0D01*
G01*
X427301Y-1492984D02*
X255873Y-1492984D01*
X341587Y-1492984D02*
X341587Y-1192984D01*
X313016Y-1235842D01*
X284444Y-1264413D01*
X255873Y-1278699D01*
X555873Y-1464413D02*
X570159Y-1478699D01*
X555873Y-1492984D01*
X541587Y-1478699D01*
X555873Y-1464413D01*
X555873Y-1492984D01*
X755873Y-1192984D02*
X784444Y-1192984D01*
X813016Y-1207270D01*
X827301Y-1221556D01*
X841587Y-1250127D01*
X855873Y-1307270D01*
X855873Y-1378699D01*
X841587Y-1435841D01*
X827301Y-1464413D01*
X813016Y-1478699D01*
X784444Y-1492984D01*
X755873Y-1492984D01*
X727301Y-1478699D01*
X713016Y-1464413D01*
X698730Y-1435841D01*
X684444Y-1378699D01*
X684444Y-1307270D01*
X698730Y-1250127D01*
X713016Y-1221556D01*
X727301Y-1207270D01*
X755873Y-1192984D01*
X1041587Y-1192984D02*
X1070159Y-1192984D01*
X1098730Y-1207270D01*
X1113016Y-1221556D01*
X1127301Y-1250127D01*
X1141587Y-1307270D01*
X1141587Y-1378699D01*
X1127301Y-1435841D01*
X1113016Y-1464413D01*
X1098730Y-1478699D01*
X1070159Y-1492984D01*
X1041587Y-1492984D01*
X1013016Y-1478699D01*
X998730Y-1464413D01*
X984444Y-1435841D01*
X970158Y-1378699D01*
X970158Y-1307270D01*
X984444Y-1250127D01*
X998730Y-1221556D01*
X1013016Y-1207270D01*
X1041587Y-1192984D01*
X1270159Y-1492984D02*
X1270159Y-1292984D01*
X1270159Y-1321556D02*
X1284444Y-1307270D01*
X1313016Y-1292984D01*
X1355873Y-1292984D01*
X1384444Y-1307270D01*
X1398730Y-1335842D01*
X1398730Y-1492984D01*
X1398730Y-1335842D02*
X1413016Y-1307270D01*
X1441587Y-1292984D01*
X1484444Y-1292984D01*
X1513016Y-1307270D01*
X1527301Y-1335842D01*
X1527301Y-1492984D01*
X1670158Y-1492984D02*
X1670158Y-1292984D01*
X1670158Y-1321556D02*
X1684444Y-1307270D01*
X1713016Y-1292984D01*
X1755873Y-1292984D01*
X1784444Y-1307270D01*
X1798730Y-1335842D01*
X1798730Y-1492984D01*
X1798730Y-1335842D02*
X1813016Y-1307270D01*
X1841587Y-1292984D01*
X1884444Y-1292984D01*
X1913016Y-1307270D01*
X1927301Y-1335842D01*
X1927301Y-1492984D01*
X2513016Y-1178699D02*
X2255873Y-1564413D01*
X2898730Y-1192984D02*
X2927301Y-1192984D01*
X2955873Y-1207270D01*
X2970158Y-1221556D01*
X2984444Y-1250127D01*
X2998730Y-1307270D01*
X2998730Y-1378699D01*
X2984444Y-1435841D01*
X2970158Y-1464413D01*
X2955873Y-1478699D01*
X2927301Y-1492984D01*
X2898730Y-1492984D01*
X2870158Y-1478699D01*
X2855873Y-1464413D01*
X2841587Y-1435841D01*
X2827301Y-1378699D01*
X2827301Y-1307270D01*
X2841587Y-1250127D01*
X2855873Y-1221556D01*
X2870158Y-1207270D01*
X2898730Y-1192984D01*
X3127301Y-1464413D02*
X3141587Y-1478699D01*
X3127301Y-1492984D01*
X3113016Y-1478699D01*
X3127301Y-1464413D01*
X3127301Y-1492984D01*
X3327301Y-1192984D02*
X3355873Y-1192984D01*
X3384444Y-1207270D01*
X3398730Y-1221556D01*
X3413015Y-1250127D01*
X3427301Y-1307270D01*
X3427301Y-1378699D01*
X3413015Y-1435841D01*
X3398730Y-1464413D01*
X3384444Y-1478699D01*
X3355873Y-1492984D01*
X3327301Y-1492984D01*
X3298730Y-1478699D01*
X3284444Y-1464413D01*
X3270158Y-1435841D01*
X3255873Y-1378699D01*
X3255873Y-1307270D01*
X3270158Y-1250127D01*
X3284444Y-1221556D01*
X3298730Y-1207270D01*
X3327301Y-1192984D01*
X3527301Y-1192984D02*
X3713015Y-1192984D01*
X3613015Y-1307270D01*
X3655873Y-1307270D01*
X3684444Y-1321556D01*
X3698730Y-1335842D01*
X3713015Y-1364413D01*
X3713015Y-1435841D01*
X3698730Y-1464413D01*
X3684444Y-1478699D01*
X3655873Y-1492984D01*
X3570158Y-1492984D01*
X3541587Y-1478699D01*
X3527301Y-1464413D01*
X3855873Y-1492984D02*
X3913015Y-1492984D01*
X3941587Y-1478699D01*
X3955873Y-1464413D01*
X3984444Y-1421556D01*
X3998730Y-1364413D01*
X3998730Y-1250127D01*
X3984444Y-1221556D01*
X3970158Y-1207270D01*
X3941587Y-1192984D01*
X3884444Y-1192984D01*
X3855873Y-1207270D01*
X3841587Y-1221556D01*
X3827301Y-1250127D01*
X3827301Y-1321556D01*
X3841587Y-1350127D01*
X3855873Y-1364413D01*
X3884444Y-1378699D01*
X3941587Y-1378699D01*
X3970158Y-1364413D01*
X3984444Y-1350127D01*
X3998730Y-1321556D01*
X4113016Y-1192984D02*
X4113016Y-1250127D01*
X4227301Y-1192984D02*
X4227301Y-1250127D01*
X4670158Y-1607270D02*
X4655873Y-1592984D01*
X4627301Y-1550127D01*
X4613016Y-1521556D01*
X4598730Y-1478699D01*
X4584444Y-1407270D01*
X4584444Y-1350127D01*
X4598730Y-1278699D01*
X4613016Y-1235842D01*
X4627301Y-1207270D01*
X4655873Y-1164413D01*
X4670158Y-1150127D01*
X4941587Y-1492984D02*
X4770158Y-1492984D01*
X4855873Y-1492984D02*
X4855873Y-1192984D01*
X4827301Y-1235842D01*
X4798730Y-1264413D01*
X4770158Y-1278699D01*
X5041587Y-1192984D02*
X5227301Y-1192984D01*
X5127301Y-1307270D01*
X5170158Y-1307270D01*
X5198730Y-1321556D01*
X5213016Y-1335842D01*
X5227301Y-1364413D01*
X5227301Y-1435841D01*
X5213016Y-1464413D01*
X5198730Y-1478699D01*
X5170158Y-1492984D01*
X5084444Y-1492984D01*
X5055873Y-1478699D01*
X5041587Y-1464413D01*
X5584444Y-1492984D02*
X5584444Y-1192984D01*
X5713015Y-1492984D02*
X5713015Y-1335842D01*
X5698730Y-1307270D01*
X5670158Y-1292984D01*
X5627301Y-1292984D01*
X5598730Y-1307270D01*
X5584444Y-1321556D01*
X5898730Y-1492984D02*
X5870158Y-1478699D01*
X5855873Y-1464413D01*
X5841587Y-1435841D01*
X5841587Y-1350127D01*
X5855873Y-1321556D01*
X5870158Y-1307270D01*
X5898730Y-1292984D01*
X5941587Y-1292984D01*
X5970158Y-1307270D01*
X5984444Y-1321556D01*
X5998730Y-1350127D01*
X5998730Y-1435841D01*
X5984444Y-1464413D01*
X5970158Y-1478699D01*
X5941587Y-1492984D01*
X5898730Y-1492984D01*
X6170158Y-1492984D02*
X6141587Y-1478699D01*
X6127301Y-1450127D01*
X6127301Y-1192984D01*
X6398730Y-1478699D02*
X6370158Y-1492984D01*
X6313016Y-1492984D01*
X6284444Y-1478699D01*
X6270158Y-1450127D01*
X6270158Y-1335842D01*
X6284444Y-1307270D01*
X6313016Y-1292984D01*
X6370158Y-1292984D01*
X6398730Y-1307270D01*
X6413016Y-1335842D01*
X6413016Y-1364413D01*
X6270158Y-1392984D01*
X6527301Y-1478699D02*
X6555873Y-1492984D01*
X6613016Y-1492984D01*
X6641587Y-1478699D01*
X6655873Y-1450127D01*
X6655873Y-1435841D01*
X6641587Y-1407270D01*
X6613016Y-1392984D01*
X6570158Y-1392984D01*
X6541587Y-1378699D01*
X6527301Y-1350127D01*
X6527301Y-1335842D01*
X6541587Y-1307270D01*
X6570158Y-1292984D01*
X6613016Y-1292984D01*
X6641587Y-1307270D01*
X6755873Y-1607270D02*
X6770158Y-1592984D01*
X6798730Y-1550127D01*
X6813016Y-1521556D01*
X6827301Y-1478699D01*
X6841587Y-1407270D01*
X6841587Y-1350127D01*
X6827301Y-1278699D01*
X6813016Y-1235842D01*
X6798730Y-1207270D01*
X6770158Y-1164413D01*
X6755873Y-1150127D01*
M02*
