G04 #@! TF.FileFunction,Soldermask,Top*
%FSLAX46Y46*%
G04 Gerber Fmt 4.6, Leading zero omitted, Abs format (unit mm)*
G04 Created by KiCad (PCBNEW 4.0.1-stable) date Monday, April 18, 2016 'AMt' 01:34:25 AM*
%MOMM*%
G01*
G04 APERTURE LIST*
%ADD10C,0.127000*%
%ADD11R,1.900000X1.900000*%
%ADD12C,1.900000*%
%ADD13C,2.150000*%
%ADD14C,2.150000*%
G04 APERTURE END LIST*
D10*
D11*
X4321800Y4149600D03*
D12*
X4321800Y2149600D03*
X6321800Y4149600D03*
X6321800Y2149600D03*
X8321800Y4149600D03*
X8321800Y2149600D03*
X10321800Y4149600D03*
X10321800Y2149600D03*
X12321800Y4149600D03*
X12321800Y2149600D03*
X14321800Y4149600D03*
X14321800Y2149600D03*
D13*
X5963043Y9620643D02*
X5963043Y9620643D01*
X4733653Y11750010D02*
X4733653Y11750010D01*
X4733653Y14208790D02*
X4733653Y14208790D01*
X5963043Y16338157D02*
X5963043Y16338157D01*
X8092410Y17567547D02*
X8092410Y17567547D01*
X10551190Y17567547D02*
X10551190Y17567547D01*
X12680557Y16338157D02*
X12680557Y16338157D01*
X13909946Y14208791D02*
X13909946Y14208791D01*
X13909946Y11750009D02*
X13909946Y11750009D01*
X12680557Y9620643D02*
X12680557Y9620643D01*
X10551191Y8391254D02*
X10551191Y8391254D01*
X8092409Y8391254D02*
X8092409Y8391254D01*
D14*
X7872938Y12591198D03*
M02*
