G04 #@! TF.FileFunction,Copper,L1,Top,Signal*
%FSLAX46Y46*%
G04 Gerber Fmt 4.6, Leading zero omitted, Abs format (unit mm)*
G04 Created by KiCad (PCBNEW 4.0.1-stable) date Monday, April 18, 2016 'AMt' 01:34:25 AM*
%MOMM*%
G01*
G04 APERTURE LIST*
%ADD10C,0.127000*%
%ADD11R,1.500000X1.500000*%
%ADD12C,1.500000*%
%ADD13C,1.750000*%
%ADD14C,1.750000*%
%ADD15C,0.152400*%
G04 APERTURE END LIST*
D10*
D11*
X4321800Y4149600D03*
D12*
X4321800Y2149600D03*
X6321800Y4149600D03*
X6321800Y2149600D03*
X8321800Y4149600D03*
X8321800Y2149600D03*
X10321800Y4149600D03*
X10321800Y2149600D03*
X12321800Y4149600D03*
X12321800Y2149600D03*
X14321800Y4149600D03*
X14321800Y2149600D03*
D13*
X5963043Y9620643D02*
X5963043Y9620643D01*
X4733653Y11750010D02*
X4733653Y11750010D01*
X4733653Y14208790D02*
X4733653Y14208790D01*
X5963043Y16338157D02*
X5963043Y16338157D01*
X8092410Y17567547D02*
X8092410Y17567547D01*
X10551190Y17567547D02*
X10551190Y17567547D01*
X12680557Y16338157D02*
X12680557Y16338157D01*
X13909946Y14208791D02*
X13909946Y14208791D01*
X13909946Y11750009D02*
X13909946Y11750009D01*
X12680557Y9620643D02*
X12680557Y9620643D01*
X10551191Y8391254D02*
X10551191Y8391254D01*
X8092409Y8391254D02*
X8092409Y8391254D01*
D14*
X7872938Y12591198D03*
D15*
X3858654Y10081654D02*
X4321800Y9618508D01*
X4321800Y9618508D02*
X4321800Y4149600D01*
X4733653Y11750010D02*
X3858654Y10875011D01*
X3858654Y10875011D02*
X3858654Y10081654D01*
X3175000Y13970000D02*
X3413790Y14208790D01*
X3413790Y14208790D02*
X4733653Y14208790D01*
X3175000Y2286000D02*
X3175000Y13970000D01*
X3311400Y2149600D02*
X3175000Y2286000D01*
X4321800Y2149600D02*
X3311400Y2149600D01*
X5963043Y7371957D02*
X6321800Y7013200D01*
X6321800Y7013200D02*
X6321800Y4149600D01*
X5963043Y9620643D02*
X5963043Y7371957D01*
X6321800Y2149600D02*
X6321800Y1088940D01*
X3810000Y1016000D02*
X2870190Y1955810D01*
X6321800Y1088940D02*
X6248860Y1016000D01*
X6248860Y1016000D02*
X3810000Y1016000D01*
X4654157Y16338157D02*
X5963043Y16338157D01*
X2870190Y1955810D02*
X2870190Y14554190D01*
X2870190Y14554190D02*
X4654157Y16338157D01*
X8572500Y5715000D02*
X8321800Y5464300D01*
X8321800Y5464300D02*
X8321800Y4149600D01*
X9334500Y5715000D02*
X8572500Y5715000D01*
X10096500Y5715000D02*
X10321800Y5489700D01*
X10321800Y5489700D02*
X10321800Y4149600D01*
X9334500Y5715000D02*
X10096500Y5715000D01*
X9334500Y12367072D02*
X9334500Y5715000D01*
X7872938Y12591198D02*
X9110374Y12591198D01*
X9110374Y12591198D02*
X9334500Y12367072D01*
X8321800Y2149600D02*
X8321800Y1088940D01*
X8321800Y1088940D02*
X7944050Y711190D01*
X7944050Y711190D02*
X3683743Y711191D01*
X3683743Y711191D02*
X2565380Y1829554D01*
X2565380Y1829554D02*
X2565380Y14884380D01*
X2565380Y14884380D02*
X5248547Y17567547D01*
X5248547Y17567547D02*
X8092410Y17567547D01*
X16103620Y14884380D02*
X13420453Y17567547D01*
X13420453Y17567547D02*
X10551190Y17567547D01*
X16103620Y1829554D02*
X16103620Y14884380D01*
X10321800Y2149600D02*
X11760209Y711191D01*
X11760209Y711191D02*
X14985257Y711191D01*
X14985257Y711191D02*
X16103620Y1829554D01*
X12321800Y6860800D02*
X12680557Y7219557D01*
X12680557Y7219557D02*
X12680557Y9620643D01*
X12321800Y4149600D02*
X12321800Y6860800D01*
X12680557Y16338157D02*
X13917993Y16338157D01*
X13917993Y16338157D02*
X15798810Y14457340D01*
X14859000Y1016000D02*
X13455400Y1016000D01*
X15798810Y14457340D02*
X15798810Y1955810D01*
X15798810Y1955810D02*
X14859000Y1016000D01*
X13455400Y1016000D02*
X12321800Y2149600D01*
X14321800Y4149600D02*
X14321800Y11338155D01*
X14321800Y11338155D02*
X13909946Y11750009D01*
X15494000Y12624737D02*
X15494000Y3321800D01*
X15494000Y3321800D02*
X14321800Y2149600D01*
X13909946Y14208791D02*
X15494000Y12624737D01*
M02*
