G04 #@! TF.FileFunction,Profile,NP*
%FSLAX46Y46*%
G04 Gerber Fmt 4.6, Leading zero omitted, Abs format (unit mm)*
G04 Created by KiCad (PCBNEW 4.0.1-stable) date Monday, April 18, 2016 'AMt' 01:34:25 AM*
%MOMM*%
G01*
G04 APERTURE LIST*
%ADD10C,0.127000*%
%ADD11C,0.025400*%
G04 APERTURE END LIST*
D10*
D11*
X18650000Y12968950D02*
X18650000Y0D01*
X18650000Y0D02*
X0Y0D01*
X0Y0D02*
X0Y12968950D01*
X0Y12968950D02*
G75*
G02X18650000Y12968950I9325000J0D01*
G01*
M02*
