(export (version D)
  (design
    (source /Volumes/homes/mblair/PocketReperf/pcbs/PocketReperfRotaryPCB/PocketReperfRotaryPCB.sch)
    (date "Monday, April 18, 2016 'AMt' 01:19:00 AM")
    (tool "Eeschema 4.0.1-stable")
    (sheet (number 1) (name /) (tstamps /)
      (title_block
        (title "PocketReperf Rotary Switch Adapter PCB")
        (company NF6X)
        (rev DRAFT)
        (date)
        (source PocketReperfRotaryPCB.sch)
        (comment (number 1) (value ""))
        (comment (number 2) (value ""))
        (comment (number 3) (value ""))
        (comment (number 4) (value "")))))
  (components
    (comp (ref J1)
      (value CONN_02X06)
      (footprint NF6X_Connectors:Molex_878311241)
      (fields
        (field (name manf) Molex)
        (field (name manf#) 878311241))
      (libsource (lib conn) (part CONN_02X06))
      (sheetpath (names /) (tstamps /))
      (tstamp 5714A169))
    (comp (ref S1)
      (value NKK_MRA112)
      (footprint NF6X_Switches:NKK_MRA112)
      (fields
        (field (name manf) NKK)
        (field (name manf#) MRA112))
      (libsource (lib Switches) (part NKK_MRA112))
      (sheetpath (names /) (tstamps /))
      (tstamp 57149A68)))
  (libparts
    (libpart (lib conn) (part CONN_02X06)
      (footprints
        (fp Pin_Header_Straight_2X06)
        (fp Pin_Header_Angled_2X06)
        (fp Socket_Strip_Straight_2X06)
        (fp Socket_Strip_Angled_2X06))
      (fields
        (field (name Reference) P)
        (field (name Value) CONN_02X06))
      (pins
        (pin (num 1) (name P1) (type passive))
        (pin (num 2) (name P2) (type passive))
        (pin (num 3) (name P3) (type passive))
        (pin (num 4) (name P4) (type passive))
        (pin (num 5) (name P5) (type passive))
        (pin (num 6) (name P6) (type passive))
        (pin (num 7) (name P7) (type passive))
        (pin (num 8) (name P8) (type passive))
        (pin (num 9) (name P9) (type passive))
        (pin (num 10) (name P10) (type passive))
        (pin (num 11) (name P11) (type passive))
        (pin (num 12) (name P12) (type passive))))
    (libpart (lib Switches) (part NKK_MRA112)
      (description "Rotary switch, 1 deck, 2-12 positions")
      (fields
        (field (name Reference) S)
        (field (name Value) NKK_MRA112)
        (field (name Footprint) NF6X_Switches:NKK_MRA112)
        (field (name manf) NKK)
        (field (name manf#) MRA112))
      (pins
        (pin (num 1) (name ~) (type passive))
        (pin (num 2) (name ~) (type passive))
        (pin (num 3) (name ~) (type passive))
        (pin (num 4) (name ~) (type passive))
        (pin (num 5) (name ~) (type passive))
        (pin (num 6) (name ~) (type passive))
        (pin (num 7) (name ~) (type passive))
        (pin (num 8) (name ~) (type passive))
        (pin (num 9) (name ~) (type passive))
        (pin (num 10) (name ~) (type passive))
        (pin (num 11) (name ~) (type passive))
        (pin (num 12) (name ~) (type passive))
        (pin (num A) (name ~) (type passive)))))
  (libraries
    (library (logical conn)
      (uri "/Users/mblair/Library/Application Support/kicad/library/conn.lib"))
    (library (logical Switches)
      (uri /Volumes/homes/mblair/KiCad-NF6X-Libs/library/Switches.lib)))
  (nets
    (net (code 1) (name "Net-(J1-Pad12)")
      (node (ref J1) (pin 12))
      (node (ref S1) (pin 8)))
    (net (code 2) (name "Net-(J1-Pad11)")
      (node (ref S1) (pin 9))
      (node (ref J1) (pin 11)))
    (net (code 3) (name "Net-(S1-Pad12)")
      (node (ref S1) (pin 12)))
    (net (code 4) (name "Net-(S1-Pad11)")
      (node (ref S1) (pin 11)))
    (net (code 5) (name "Net-(J1-Pad9)")
      (node (ref J1) (pin 9))
      (node (ref S1) (pin 10)))
    (net (code 6) (name "Net-(J1-Pad5)")
      (node (ref J1) (pin 7))
      (node (ref J1) (pin 5))
      (node (ref S1) (pin A)))
    (net (code 7) (name "Net-(J1-Pad10)")
      (node (ref S1) (pin 7))
      (node (ref J1) (pin 10)))
    (net (code 8) (name "Net-(J1-Pad8)")
      (node (ref S1) (pin 6))
      (node (ref J1) (pin 8)))
    (net (code 9) (name "Net-(J1-Pad6)")
      (node (ref S1) (pin 5))
      (node (ref J1) (pin 6)))
    (net (code 10) (name "Net-(J1-Pad4)")
      (node (ref J1) (pin 4))
      (node (ref S1) (pin 4)))
    (net (code 11) (name "Net-(J1-Pad2)")
      (node (ref S1) (pin 3))
      (node (ref J1) (pin 2)))
    (net (code 12) (name "Net-(J1-Pad3)")
      (node (ref S1) (pin 1))
      (node (ref J1) (pin 3)))
    (net (code 13) (name "Net-(J1-Pad1)")
      (node (ref J1) (pin 1))
      (node (ref S1) (pin 2)))))